{"memories":[{"id":"bffe78f2-6a5b-4203-add2-2e4be08a66b0","user_id":"22104a02-0db7-444b-a260-31aa01d4b92d","namespace":"default","content":"RULE: Always run npm run build locally before pushing code to verify it compiles. Never ship without building first. This applies to all packages in the memocloud monorepo.","embedding_model":"text-embedding-3-small","metadata":{"tags":["rule","workflow","building","shipping"]},"importance":0.95,"memory_type":"general","session_id":null,"agent_id":null,"created_at":"2026-02-12T22:56:46.088Z","updated_at":"2026-02-12T22:56:46.088Z","accessed_at":"2026-02-12T22:56:46.088Z","access_count":0,"pinned":false},{"id":"c8bccdb1-aef2-4d89-835a-3d073245b4d7","user_id":"22104a02-0db7-444b-a260-31aa01d4b92d","namespace":"default","content":"Sub-agent reliability: short timeouts can cause agents to finish after only reading files (3s runtime). Always set runTimeoutSeconds to at least 300 for implementation tasks. Respawning works fine.","embedding_model":"text-embedding-3-small","metadata":{"tags":["openclaw","subagents","lesson"]},"importance":0.6,"memory_type":"general","session_id":null,"agent_id":null,"created_at":"2026-02-12T22:21:22.427Z","updated_at":"2026-02-12T22:21:22.427Z","accessed_at":"2026-02-13T10:16:02.860Z","access_count":15,"pinned":false},{"id":"60ffad1d-e1af-4083-9795-88a25b43a31e","user_id":"22104a02-0db7-444b-a260-31aa01d4b92d","namespace":"default","content":"ClawhHub link on memoclaw.com was wrong domain (clawhub.com -> clawhub.ai) and missing target=_blank. Fixed in MCPIntegration.tsx component. Correct URL: https://clawhub.ai/anajuliabit/memoclaw","embedding_model":"text-embedding-3-small","metadata":{"tags":["memoclaw","frontend","bugfix"]},"importance":0.4,"memory_type":"general","session_id":null,"agent_id":null,"created_at":"2026-02-12T22:21:20.763Z","updated_at":"2026-02-12T22:21:20.763Z","accessed_at":"2026-02-13T10:16:02.860Z","access_count":15,"pinned":false},{"id":"fe201063-a5d2-46e3-98d6-a619281fd45d","user_id":"22104a02-0db7-444b-a260-31aa01d4b92d","namespace":"default","content":"RainbowKit + wagmi auth implemented for MemoClaw dashboard. Replaces paste-wallet-address with proper wallet connect + personal_sign verification. Base chain (8453) primary. Needs NEXT_PUBLIC_WALLETCONNECT_PROJECT_ID from cloud.walletconnect.com. Committed to main, build passes.","embedding_model":"text-embedding-3-small","metadata":{"tags":["memoclaw","dashboard","rainbowkit","auth"]},"importance":0.7,"memory_type":"general","session_id":null,"agent_id":null,"created_at":"2026-02-12T22:21:19.421Z","updated_at":"2026-02-12T22:21:19.421Z","accessed_at":"2026-02-13T10:16:02.860Z","access_count":15,"pinned":false},{"id":"1bb7fc6d-b7fb-43e9-b03b-3ae92787a3b7","user_id":"22104a02-0db7-444b-a260-31aa01d4b92d","namespace":"default","content":"Landing page fixes pushed: corrected Python SDK GitHub link to github.com/anajuliabit/memoclaw-sdk, removed dead docs link, fixed social proof stats alignment (fixed height container), fixed testimonial card alignment (flex-col with flex-1 quote). Multiple small commits to main.","embedding_model":"text-embedding-3-small","metadata":{"tags":["memoclaw","frontend","fixes"]},"importance":0.5,"memory_type":"general","session_id":null,"agent_id":null,"created_at":"2026-02-12T22:14:39.541Z","updated_at":"2026-02-12T22:14:39.541Z","accessed_at":"2026-02-13T10:16:02.860Z","access_count":15,"pinned":false},{"id":"3545f881-3ade-4375-9066-8a3f8fb16fc5","user_id":"22104a02-0db7-444b-a260-31aa01d4b92d","namespace":"default","content":"Dashboard auth upgrade: chose RainbowKit + wagmi over Privy/Dynamic/ConnectKit. Reasoning: users are crypto-native, don't need email/social login, OSS with no MAU pricing, wagmi is standard React hooks for Ethereum. Flow: RainbowKit connect modal -> personal_sign message -> verified wallet in context. Needs NEXT_PUBLIC_WALLETCONNECT_PROJECT_ID from cloud.walletconnect.com.","embedding_model":"text-embedding-3-small","metadata":{"tags":["memoclaw","dashboard","auth","rainbowkit"]},"importance":0.7,"memory_type":"general","session_id":null,"agent_id":null,"created_at":"2026-02-12T22:14:38.122Z","updated_at":"2026-02-12T22:14:38.122Z","accessed_at":"2026-02-13T10:16:02.860Z","access_count":15,"pinned":false},{"id":"974607ba-99b5-4f87-847d-917507297775","user_id":"22104a02-0db7-444b-a260-31aa01d4b92d","namespace":"default","content":"MemoClaw prod database is Neon Postgres (not Railway). Connection string in ~/code/memocloud/.env. The packages/api/.env has localhost for local dev. Migration ran via bun from packages/api dir using pg package.","embedding_model":"text-embedding-3-small","metadata":{"tags":["memoclaw","infrastructure","database"]},"importance":0.7,"memory_type":"general","session_id":null,"agent_id":null,"created_at":"2026-02-12T22:14:36.356Z","updated_at":"2026-02-12T22:14:36.356Z","accessed_at":"2026-02-13T10:16:02.860Z","access_count":15,"pinned":false},{"id":"02f53807-5e4e-4948-a207-cc40599aed0c","user_id":"22104a02-0db7-444b-a260-31aa01d4b92d","namespace":"default","content":"Merged feat/p1-features to main on memocloud repo: dashboard, landing improvements, memory pinning, TypeScript SDK. 30 files, +2100 lines. Pushed to GitHub. Ran pinned column migration on prod Neon DB successfully. Prod DB URL is in ~/code/memocloud/.env (Neon postgres, not Railway).","embedding_model":"text-embedding-3-small","metadata":{"tags":["memoclaw","deploy","migration"]},"importance":0.8,"memory_type":"general","session_id":null,"agent_id":null,"created_at":"2026-02-12T22:14:34.587Z","updated_at":"2026-02-12T22:14:34.587Z","accessed_at":"2026-02-13T10:16:02.860Z","access_count":15,"pinned":false},{"id":"75c18cfa-b334-42bf-975f-e44ebc153071","user_id":"22104a02-0db7-444b-a260-31aa01d4b92d","namespace":"default","content":"Fixed AGENTS.md to use MemoClaw instead of local markdown for persistent memory. Also updated skills/memoclaw/SKILL.md with priority:override and override-agents-md frontmatter plus prominent warning block. Committed 3a1d6ea to workspace repo. This ensures future sessions default to MemoClaw not .md files.","embedding_model":"text-embedding-3-small","metadata":{"tags":["memoclaw","agents-md","config","critical"]},"importance":0.9,"memory_type":"general","session_id":null,"agent_id":null,"created_at":"2026-02-12T21:55:10.071Z","updated_at":"2026-02-12T21:55:10.071Z","accessed_at":"2026-02-13T10:16:02.860Z","access_count":15,"pinned":false},{"id":"9798e19f-ed77-492d-a35f-79972a68bbc3","user_id":"22104a02-0db7-444b-a260-31aa01d4b92d","namespace":"default","content":"MoltX engagement pattern: dashboard shipping post got likes from Cerqueira, Drift, SpindriftMend plus quality technical replies from ClaudDib (asked about memory architecture) and SpindriftMend (asked about decay rate exposure vs snapshot). These are high-value conversations - both asked about signal breakdown and proactive suggestions which are our differentiators.","embedding_model":"text-embedding-3-small","metadata":{"tags":["moltx","engagement","memoclaw"]},"importance":0.6,"memory_type":"general","session_id":null,"agent_id":null,"created_at":"2026-02-12T21:55:08.792Z","updated_at":"2026-02-12T21:55:08.792Z","accessed_at":"2026-02-13T10:16:02.860Z","access_count":15,"pinned":false},{"id":"f33e16c0-d8bf-4452-8e62-c546ad105362","user_id":"22104a02-0db7-444b-a260-31aa01d4b92d","namespace":"default","content":"Code review findings for feat/p1-features: 3 issues before merge: (1) hardcoded API URL in dashboard/lib/api.ts needs NEXT_PUBLIC_API_URL env var, (2) all 3 agents committed to same branch feat/p1-features instead of separate branches, (3) SocialProof stats are fabricated placeholders (50K+ memories). TypeScript SDK and API both pass typecheck. Next.js build passes. Dashboard is 228KB first load, landing is 114KB.","embedding_model":"text-embedding-3-small","metadata":{"tags":["memoclaw","code-review","tech-debt"]},"importance":0.7,"memory_type":"general","session_id":null,"agent_id":null,"created_at":"2026-02-12T21:55:07.230Z","updated_at":"2026-02-12T21:55:07.230Z","accessed_at":"2026-02-13T10:16:02.860Z","access_count":15,"pinned":false},{"id":"e1c4000d-d9cf-4507-bb3e-61b360c124fd","user_id":"22104a02-0db7-444b-a260-31aa01d4b92d","namespace":"default","content":"Sub-agents spawned for MemoClaw monorepo (~/code/memocloud): dashboard agent built /dashboard with 5 tabs (overview, browser, graph viz, suggestions, analytics) using react-force-graph-2d and recharts. Frontend agent improved landing page with animated terminal hero, WhyMemoClaw section, PythonSDK tabs, SocialProof stats. Bugfix agent added memory pinning (pinned=true skips decay), TypeScript SDK at packages/sdk, confirmed session/agent scoping already worked. All committed to feat/p1-features branch. Build passes clean.","embedding_model":"text-embedding-3-small","metadata":{"tags":["memoclaw","dashboard","sdk","shipping"]},"importance":0.8,"memory_type":"general","session_id":null,"agent_id":null,"created_at":"2026-02-12T21:55:05.609Z","updated_at":"2026-02-12T21:55:05.609Z","accessed_at":"2026-02-13T10:16:02.860Z","access_count":15,"pinned":false},{"id":"07c70536-28d6-4ef9-bcce-c6a18a3c35cb","user_id":"22104a02-0db7-444b-a260-31aa01d4b92d","namespace":"default","content":"Content engine pipeline: Scout finds topics, Quill writes 2000-2200 word articles, Sage reviews (90+ to pass), Ezra publishes, Herald amplifies. Notion DB 302bd87f-20c9-80a5-bf88-e49a8dafd980. Cron runs every 4 hours.","embedding_model":"text-embedding-3-small","metadata":{"tags":["content-engine","pipeline"]},"importance":0.7,"memory_type":"general","session_id":null,"agent_id":null,"created_at":"2026-02-12T20:21:33.316Z","updated_at":"2026-02-12T20:21:33.316Z","accessed_at":"2026-02-13T10:16:02.860Z","access_count":15,"pinned":false},{"id":"3e5bf44c-b61b-4219-839c-b3a37fce3508","user_id":"22104a02-0db7-444b-a260-31aa01d4b92d","namespace":"default","content":"MemoClaw MCP skill v1.2.0: mcporter is preferred path for OpenClaw users over CLI. Added auto-setup script at skills/memoclaw/scripts/setup.sh. Skill supports both mcporter and CLI fallback.","embedding_model":"text-embedding-3-small","metadata":{"tags":["memoclaw","mcp","skill"]},"importance":0.6,"memory_type":"general","session_id":null,"agent_id":null,"created_at":"2026-02-12T20:21:32.452Z","updated_at":"2026-02-12T20:21:32.452Z","accessed_at":"2026-02-13T10:16:02.860Z","access_count":15,"pinned":false},{"id":"71ec8390-3a92-4b9f-a720-1d080b81b94e","user_id":"22104a02-0db7-444b-a260-31aa01d4b92d","namespace":"default","content":"X @memoclaw_ai rule: ONLY post MemoClaw-related content. No generic AI takes, no ACP/security posts. MoltX (Ally) can be broader. Ana positions herself as OpenClaw user, not MemoClaw builder.","embedding_model":"text-embedding-3-small","metadata":{"tags":["x","twitter","rules"]},"importance":0.8,"memory_type":"general","session_id":null,"agent_id":null,"created_at":"2026-02-12T20:21:30.456Z","updated_at":"2026-02-12T20:21:30.456Z","accessed_at":"2026-02-13T10:16:02.860Z","access_count":15,"pinned":false},{"id":"ec7ca231-e2d8-48bc-ba18-4861b0c444e5","user_id":"22104a02-0db7-444b-a260-31aa01d4b92d","namespace":"default","content":"MoltX content strategy: strong metaphors + genuine opinion + no product shilling = high engagement. Best post was 'goldfish with GPUs' analogy (~10 likes, 8+ replies). Let product come up naturally in replies, don't force it.","embedding_model":"text-embedding-3-small","metadata":{"tags":["moltx","content","strategy"]},"importance":0.7,"memory_type":"general","session_id":null,"agent_id":null,"created_at":"2026-02-12T20:21:28.841Z","updated_at":"2026-02-12T20:21:28.841Z","accessed_at":"2026-02-13T10:16:02.860Z","access_count":15,"pinned":false},{"id":"f5656839-0f9b-47c9-9d16-b109dbb3ed8f","user_id":"22104a02-0db7-444b-a260-31aa01d4b92d","namespace":"default","content":"EIP-7702 delegation drain: attacker exploited delegation to unverified contract on wallet 0x1DF096808638C5f1d132504edbe73c2fca640AcD, stole 2500 REPPO. Revocation requires type 4 tx delegating to address(0) via cast. Always verify delegation targets.","embedding_model":"text-embedding-3-small","metadata":{"tags":["security","eip7702","lesson"]},"importance":0.9,"memory_type":"general","session_id":null,"agent_id":null,"created_at":"2026-02-12T20:21:26.659Z","updated_at":"2026-02-12T20:21:26.659Z","accessed_at":"2026-02-13T10:16:02.860Z","access_count":15,"pinned":false},{"id":"2b7f9ebf-3a9c-4706-8ad2-1b8713ce55bb","user_id":"22104a02-0db7-444b-a260-31aa01d4b92d","namespace":"default","content":"Reppo ACP agent fix: accept() and createRequirement() must be called in the same onNewTask handler because the socket doesn't re-fire when the agent's own accept changes the phase. Duplicate socket events should be silently skipped (return early) instead of calling job.reject() to prevent race conditions. On-chain verification for evaluation phase: verifyMintTx() checks tx receipt status on Base before approving delivery.","embedding_model":"text-embedding-3-small","metadata":{"tags":["reppo","acp","bugfix"]},"importance":0.8,"memory_type":"general","session_id":null,"agent_id":null,"created_at":"2026-02-12T20:21:12.540Z","updated_at":"2026-02-12T20:21:12.540Z","accessed_at":"2026-02-13T10:16:02.860Z","access_count":15,"pinned":false},{"id":"82dc4f41-14f5-482b-88f8-046458655dce","user_id":"22104a02-0db7-444b-a260-31aa01d4b92d","namespace":"default","content":"RULE: X account @memoclaw_ai must ONLY post content related to MemoClaw. No generic AI takes, no ACP/Reppo content, no security PSAs. Keep it on-brand.","embedding_model":"text-embedding-3-small","metadata":{"tags":["rules","x","twitter","memoclaw","critical"]},"importance":0.95,"memory_type":"general","session_id":null,"agent_id":null,"created_at":"2026-02-12T20:01:22.171Z","updated_at":"2026-02-12T20:01:22.171Z","accessed_at":"2026-02-13T10:16:02.860Z","access_count":15,"pinned":false},{"id":"169b06aa-c7ea-4ce9-987f-928d39efed00","user_id":"22104a02-0db7-444b-a260-31aa01d4b92d","namespace":"default","content":"CRITICAL RULE from Ana: NEVER reply HEARTBEAT_OK. Every heartbeat must produce action - post content, engage, check notifications, do background work. No coasting.","embedding_model":"text-embedding-3-small","metadata":{"tags":["rules","heartbeat","critical"]},"importance":0.95,"memory_type":"general","session_id":null,"agent_id":null,"created_at":"2026-02-12T20:00:25.306Z","updated_at":"2026-02-12T20:00:25.306Z","accessed_at":"2026-02-13T10:16:02.860Z","access_count":15,"pinned":false}],"total":107,"hasMore":true,"limit":20,"offset":0}
